{
  "id": "UCDD",
  "name": "Capturista de Datos",
  "sections": [
    {
      "name": "Experiencia Laboral",
      "elements": [
        {
          "label": "Años",
          "type": "choice",
          "choices": {
            "0" : "0 a 2",
            "1" : "2 a 5",
            "2" : "5 a 8",
            "3" : "> a 8"
          }
        }
      ]
    },
    {
      "name": "Estudios",
      "elements": [
        {
          "label": "Grado",
          "type": "choice",
          "choices": {
            "1" : "Tecnico en computación, Sistemas de Información o Equivalente",
            "2" : "Licenciatura"
          }
        }
      ]
    },
    {
      "name": "Otros Requesitos",
      "elements":[
        {
          "label": "Manejo de Base de Datos",
          "type": "text",
          "value": 0.5,
          "disable": true
        },
        {
          "label" : "Familiarizado con Términos de Ingeniería",
          "type" : "text",
          "value" : 0.5,
          "disable": true
        }
      ]
    }
  ]
}